12.5.2018  12:59:22:988 {"user":"vasyaw33333","password":"123456ww3333333","myname":"qqwqwwwwqw333333","class":"453"}
12.5.2018  12:59:24:698 {"user":"vasyaw33333","password":"123456ww3333333","myname":"qqwqwwwwqw333333","class":"453"}
12.5.2018  12:59:25:832 {"user":"vasyaw33333","password":"123456ww3333333","myname":"qqwqwwwwqw333333","class":"453"}
12.5.2018  12:59:28:545 {"user":"vasyaw33333","password":"123456ww3333333","myname":"qqwqwwwwqw333333","class":"453"}
12.5.2018  14:54:50:742 {"user":"vasyaw33333","password":"123456ww3333333","myname":"qqwqwwwwqw333333","class":"453"}
12.5.2018  14:54:53:99 {"user":"vasyaw33333","password":"123456ww3333333","myname":"qqwqwwwwqw333333","class":"453"}
12.5.2018  14:54:54:366 {"user":"vasyaw33333","password":"123456ww3333333","myname":"qqwqwwwwqw333333","class":"453"}
12.5.2018  14:56:23:668 {"user":"vasyaw33333","password":"123456ww3333333","myname":"qqwqwwwwqw333333","class":"453"}
12.5.2018  14:56:24:926 {"user":"vasyaw33333","password":"123456ww3333333","myname":"qqwqwwwwqw333333","class":"453"}
12.5.2018  14:56:26:87 {"user":"vasyaw33333","password":"123456ww3333333","myname":"qqwqwwwwqw333333","class":"453"}
12.5.2018  14:56:26:932 {"user":"vasyaw33333","password":"123456ww3333333","myname":"qqwqwwwwqw333333","class":"453"}
12.5.2018  15:4:36:835 {"user":"vasyaw33333","password":"123456ww3333333","myname":"qqwqwwwwqw333333","class":"453"}
12.5.2018  15:4:38:303 {"user":"vasyaw33333","password":"123456ww3333333","myname":"qqwqwwwwqw333333","class":"453"}
12.5.2018  15:4:39:29 {"user":"vasyaw33333","password":"123456ww3333333","myname":"qqwqwwwwqw333333","class":"453"}
12.5.2018  15:4:39:944 {"user":"vasyaw33333","password":"123456ww3333333","myname":"qqwqwwwwqw333333","class":"453"}
12.5.2018  15:10:0:870 {"user":"vasyaw33333","password":"123456ww3333333","myname":"qqwqwwwwqw333333","class":"453"}
12.5.2018  15:10:15:5 {"user":"vasyaw33333","password":"123456ww3333333","myname":"qqwqwwwwqw333333","class":"453"}
12.5.2018  15:11:3:973 {"user":"vasyaw33333","password":"123456ww3333333","myname":"qqwqwwwwqw333333","class":"453"}
12.5.2018  15:11:50:589 {"user":"vasyaw33333","password":"123456ww3333333","myname":"qqwqwwwwqw333333","class":"453"}
12.5.2018  15:14:42:668 {"user":"vasyaw33333","password":"123456ww3333333","myname":"qqwqwwwwqw333333","class":"453"}
12.5.2018  15:14:43:551 {"user":"vasyaw33333","password":"123456ww3333333","myname":"qqwqwwwwqw333333","class":"453"}
12.5.2018  15:14:44:268 {"user":"vasyaw33333","password":"123456ww3333333","myname":"qqwqwwwwqw333333","class":"453"}
12.5.2018  15:14:45:76 {"user":"vasyaw33333","password":"123456ww3333333","myname":"qqwqwwwwqw333333","class":"453"}
12.5.2018  15:18:3:403 {"user":"vasyaw33333","password":"123456ww3333333","myname":"qqwqwwwwqw333333","class":"453"}
12.5.2018  15:18:4:866 {"user":"vasyaw33333","password":"123456ww3333333","myname":"qqwqwwwwqw333333","class":"453"}
12.5.2018  15:18:5:560 {"user":"vasyaw33333","password":"123456ww3333333","myname":"qqwqwwwwqw333333","class":"453"}
12.5.2018  15:18:6:203 {"user":"vasyaw33333","password":"123456ww3333333","myname":"qqwqwwwwqw333333","class":"453"}
12.5.2018  15:18:50:61 {"user":"vasyaw33333","password":"123456ww3333333","myname":"qqwqwwwwqw333333","class":"453"}
12.5.2018  15:18:51:42 {"user":"vasyaw33333","password":"123456ww3333333","myname":"qqwqwwwwqw333333","class":"453"}
12.5.2018  15:18:51:719 {"user":"vasyaw33333","password":"123456ww3333333","myname":"qqwqwwwwqw333333","class":"453"}
12.5.2018  15:18:52:208 {"user":"vasyaw33333","password":"123456ww3333333","myname":"qqwqwwwwqw333333","class":"453"}
12.5.2018  15:19:32:965 {"user":"vasyaw33333","password":"123456ww3333333","myname":"qqwqwwwwqw333333","class":"453"}
12.5.2018  15:19:33:553 {"user":"vasyaw33333","password":"123456ww3333333","myname":"qqwqwwwwqw333333","class":"453"}
12.5.2018  15:19:34:181 {"user":"vasyaw33333","password":"123456ww3333333","myname":"qqwqwwwwqw333333","class":"453"}
12.5.2018  15:21:12:241 {"user":"vasyaw33333","password":"123456ww3333333","myname":"qqwqwwwwqw333333","class":"453"}
12.5.2018  15:21:13:289 {"user":"vasyaw33333","password":"123456ww3333333","myname":"qqwqwwwwqw333333","class":"453"}
12.5.2018  15:21:13:956 {"user":"vasyaw33333","password":"123456ww3333333","myname":"qqwqwwwwqw333333","class":"453"}
12.5.2018  15:21:48:371 {"user":"vasyaw33333","password":"123456ww3333333","myname":"qqwqwwwwqw333333","class":"453"}
12.5.2018  15:21:48:658 {"user":"vasyaw33333","password":"123456ww3333333","myname":"qqwqwwwwqw333333","class":"453"}
12.5.2018  15:21:49:286 {"user":"vasyaw33333","password":"123456ww3333333","myname":"qqwqwwwwqw333333","class":"453"}
12.5.2018  15:21:49:761 {"user":"vasyaw33333","password":"123456ww3333333","myname":"qqwqwwwwqw333333","class":"453"}
12.5.2018  15:23:1:235 {"user":"vasyaw33333","password":"123456ww3333333","myname":"qqwqwwwwqw333333","class":"453"}
12.5.2018  15:23:2:21 {"user":"vasyaw33333","password":"123456ww3333333","myname":"qqwqwwwwqw333333","class":"453"}
12.5.2018  15:23:2:625 {"user":"vasyaw33333","password":"123456ww3333333","myname":"qqwqwwwwqw333333","class":"453"}
12.5.2018  15:24:30:165 {"user":"vasyaw33333","password":"123456ww3333333","myname":"qqwqwwwwqw333333","class":"453"}
12.5.2018  15:24:30:389 {"user":"vasyaw33333","password":"123456ww3333333","myname":"qqwqwwwwqw333333","class":"453"}
12.5.2018  15:24:30:955 {"user":"vasyaw33333","password":"123456ww3333333","myname":"qqwqwwwwqw333333","class":"453"}
12.5.2018  15:25:57:631 {"user":"vasyaw33333","password":"123456ww3333333","myname":"qqwqwwwwqw333333","class":"453"}
12.5.2018  15:25:58:402 {"user":"vasyaw33333","password":"123456ww3333333","myname":"qqwqwwwwqw333333","class":"453"}
12.5.2018  15:25:59:119 {"user":"vasyaw33333","password":"123456ww3333333","myname":"qqwqwwwwqw333333","class":"453"}
12.5.2018  15:25:59:840 {"user":"vasyaw33333","password":"123456ww3333333","myname":"qqwqwwwwqw333333","class":"453"}
12.5.2018  15:26:28:632 {"user":"vasyaw33333","password":"123456ww3333333","myname":"qqwqwwwwqw333333","class":"453"}
12.5.2018  15:26:29:3 {"user":"vasyaw33333","password":"123456ww3333333","myname":"qqwqwwwwqw333333","class":"453"}
12.5.2018  15:26:29:568 {"user":"vasyaw33333","password":"123456ww3333333","myname":"qqwqwwwwqw333333","class":"453"}
12.5.2018  15:26:30:700 {"user":"vasyaw33333","password":"123456ww3333333","myname":"qqwqwwwwqw333333","class":"453"}
12.5.2018  21:25:0:600 {"user":"Ira","password":"15666","myname":"rrrrrrr","class":"4"}
12.5.2018  22:16:57:84 {"userName":"Vasiliy","lastName":"Ivanov","number":"2","text":"Some text"}
12.5.2018  22:23:12:292 {"userName":"Vasiliy","lastName":"Ivanov","number":"2","text":"Some text"}
