Read
Request: undefined Response:  Time: -1526147177.164 secondsRead webp.webp
Request: undefined Response:  Time: -1526147338.452 seconds Read image:  webp.webp
Request: undefined Response:  Time: -1526147404.301 seconds Read image:  webp.webp
Request: 12.5.2018  20:50:31:603 Response:  Time: -1526147431.603 seconds Read image:  webp.webp
Request: 12.5.2018  20:52:6:40 Response: 12.5.2018  20:52:6:51 Time: -1526147526.04 seconds Read image:  webp.webp
Request: 12.5.2018  20:52:50:952 Response: 12.5.2018  20:52:50:960 Time: 0.008 seconds Read image:  webp.webp
Request: 12.5.2018  20:54:33:636 Response: 12.5.2018  20:54:33:664 Time: 0.028 seconds Read image:  webp.webp
Request: 12.5.2018  20:56:13:586 Response: 12.5.2018  20:56:13:610 Time: 0.024 seconds Read image:  webp.webp statusCode: 200
Request: 12.5.2018  20:58:8:745 Response: 12.5.2018  20:58:8:772 Time: 0.027 seconds Read image:  webp.webp statusCode: 200
Request: 12.5.2018  21:11:48:868 Response: 12.5.2018  21:11:48:878 Time: 0.01 seconds Read image:  webp.webp statusCode: 200 userAgent: PostmanRuntime/7.1.1
Request: 12.5.2018  21:14:40:283 Response: 12.5.2018  21:14:40:287 Time: 0.004 seconds Read image:  webp.webp statusCode: 200 userAgent: Mozilla/5.0 (Windows NT 10.0; Win64; x64) AppleWebKit/537.36 (KHTML, like Gecko) Chrome/66.0.3359.139 Safari/537.36
Request: 12.5.2018  21:33:51:336 Response: 12.5.2018  21:33:51:350 Time: 0.014 seconds Read image:  gif.gif statusCode: 200 userAgent: PostmanRuntime/7.1.1
